%YAML 1.1
%TAG !u! tag:unity3d.com,2011:
--- !u!114 &2004727040190904990
MonoBehaviour:
  m_ObjectHideFlags: 0
  m_CorrespondingSourceObject: {fileID: 0}
  m_PrefabInstance: {fileID: 0}
  m_PrefabAsset: {fileID: 0}
  m_GameObject: {fileID: 2274061269586325513}
  m_Enabled: 1
  m_EditorHideFlags: 0
  m_Script: {fileID: 11500000, guid: 3169f7f2bf566a242a9836848bc2fdb5, type: 3}
  m_Name: 
  m_EditorClassIdentifier: 
  speed: 10
  direction: {x: 1, y: 0}
--- !u!1001 &4094540258375583746
PrefabInstance:
  m_ObjectHideFlags: 0
  serializedVersion: 2
  m_Modification:
    m_TransformParent: {fileID: 0}
    m_Modifications:
    - target: {fileID: 2836612484629781701, guid: c6503247226d99d47a4cf8e484865ef5,
        type: 3}
      propertyPath: m_Sprite
      value: 
      objectReference: {fileID: 21300000, guid: a819473679755f84cba7467409220beb,
        type: 3}
    - target: {fileID: 2836612485441255432, guid: c6503247226d99d47a4cf8e484865ef5,
        type: 3}
      propertyPath: m_LocalPosition.x
      value: 0
      objectReference: {fileID: 0}
    - target: {fileID: 2836612485441255432, guid: c6503247226d99d47a4cf8e484865ef5,
        type: 3}
      propertyPath: m_LocalPosition.y
      value: 0
      objectReference: {fileID: 0}
    - target: {fileID: 2836612485441255432, guid: c6503247226d99d47a4cf8e484865ef5,
        type: 3}
      propertyPath: m_LocalPosition.z
      value: 0
      objectReference: {fileID: 0}
    - target: {fileID: 2836612485441255432, guid: c6503247226d99d47a4cf8e484865ef5,
        type: 3}
      propertyPath: m_LocalRotation.x
      value: 0
      objectReference: {fileID: 0}
    - target: {fileID: 2836612485441255432, guid: c6503247226d99d47a4cf8e484865ef5,
        type: 3}
      propertyPath: m_LocalRotation.y
      value: 0
      objectReference: {fileID: 0}
    - target: {fileID: 2836612485441255432, guid: c6503247226d99d47a4cf8e484865ef5,
        type: 3}
      propertyPath: m_LocalRotation.z
      value: 0
      objectReference: {fileID: 0}
    - target: {fileID: 2836612485441255432, guid: c6503247226d99d47a4cf8e484865ef5,
        type: 3}
      propertyPath: m_LocalRotation.w
      value: 1
      objectReference: {fileID: 0}
    - target: {fileID: 2836612485441255432, guid: c6503247226d99d47a4cf8e484865ef5,
        type: 3}
      propertyPath: m_RootOrder
      value: 0
      objectReference: {fileID: 0}
    - target: {fileID: 2836612485441255432, guid: c6503247226d99d47a4cf8e484865ef5,
        type: 3}
      propertyPath: m_LocalEulerAnglesHint.x
      value: 0
      objectReference: {fileID: 0}
    - target: {fileID: 2836612485441255432, guid: c6503247226d99d47a4cf8e484865ef5,
        type: 3}
      propertyPath: m_LocalEulerAnglesHint.y
      value: 0
      objectReference: {fileID: 0}
    - target: {fileID: 2836612485441255432, guid: c6503247226d99d47a4cf8e484865ef5,
        type: 3}
      propertyPath: m_LocalEulerAnglesHint.z
      value: 0
      objectReference: {fileID: 0}
    - target: {fileID: 2836612485441255433, guid: c6503247226d99d47a4cf8e484865ef5,
        type: 3}
      propertyPath: direction.y
      value: 0
      objectReference: {fileID: 0}
    - target: {fileID: 2836612485441255433, guid: c6503247226d99d47a4cf8e484865ef5,
        type: 3}
      propertyPath: direction.x
      value: 1
      objectReference: {fileID: 0}
    - target: {fileID: 2836612485441255435, guid: c6503247226d99d47a4cf8e484865ef5,
        type: 3}
      propertyPath: m_Name
      value: LaserBullet Variant 1
      objectReference: {fileID: 0}
    m_RemovedComponents:
    - {fileID: 2836612485441255433, guid: c6503247226d99d47a4cf8e484865ef5, type: 3}
  m_SourcePrefab: {fileID: 100100000, guid: c6503247226d99d47a4cf8e484865ef5, type: 3}
--- !u!1 &2274061269586325513 stripped
GameObject:
  m_CorrespondingSourceObject: {fileID: 2836612485441255435, guid: c6503247226d99d47a4cf8e484865ef5,
    type: 3}
  m_PrefabInstance: {fileID: 4094540258375583746}
  m_PrefabAsset: {fileID: 0}
